…
To illustrate these points, let's look at a subset of the data that Hans
Roslin used in the video I showed on the first day of class. It contains just
a single year of the data (2007).


{% highlight r %}
gapminder_2007 <- read_csv("https://statsmaths.github.io/stat_data/gapminder_2007.csv")
gapminder_2007
{% endhighlight %}



{% highlight text %}
## # A tibble: 142 x 5
##    country     continent life_exp       pop gdp_per_cap
##    <chr>       <chr>        <dbl>     <dbl>       <dbl>
##  1 Afghanistan Asia          43.8  31889923        975.
##  2 Albania     Europe        76.4   3600523       5937.
##  3 Algeria     Africa        72.3  33333216       6223.
##  4 Angola      Africa        42.7  12420476       4797.
##  5 Argentina   Americas      75.3  40301927      12779.
##  6 Australia   Oceania       81.2  20434176      34435.
##  7 Austria     Europe        79.8   8199783      36126.
##  8 Bahrain     Asia          75.6    708573      29796.
##  9 Bangladesh  Asia          64.1 150448339       1391.
## 10 Belgium     Europe        79.4  10392226      33693.
## # … with 132 more rows
…
