…
Our object of study will be the function `group_by`, a **dplyr**
verb that seemingly does nothing (or very little) to a dataset.
Here, we group the flights data by month:


{% highlight r %}
group_by(flights, month)
{% endhighlight %}



{% highlight text %}
## # A tibble: 327,346 x 19
## # Groups:   month [12]
##     year month   day dep_time sched_dep_time dep_delay arr_time
##    <dbl> <dbl> <dbl>    <dbl>          <dbl>     <dbl>    <dbl>
##  1  2013     1     1      517            515         2      830
##  2  2013     1     1      533            529         4      850
##  3  2013     1     1      542            540         2      923
##  4  2013     1     1      544            545        -1     1004
##  5  2013     1     1      554            600        -6      812
##  6  2013     1     1      554            558        -4      740
##  7  2013     1     1      555            600        -5      913
##  8  2013     1     1      557            600        -3      709
##  9  2013     1     1      557            600        -3      838
## 10  2013     1     1      558            600        -2      753
## # … with 327,336 more rows, and 12 more variables: sched_arr_time <dbl>,
## #   arr_delay <dbl>, carrier <chr>, flight <dbl>, tailnum <chr>,
## #   origin <chr>, dest <chr>, air_time <dbl>, distance <dbl>, hour <dbl>,
## #   minute <dbl>, time_hour <dttm>
…
{% highlight r %}
flights %>%
  group_by(origin, month) %>%
  summarize(avg_dep_delay = mean(dep_delay),
            avg_arr_delay = mean(arr_delay),
            n = n())
{% endhighlight %}



{% highlight text %}
## # A tibble: 36 x 5
## # Groups:   origin [3]
##    origin month avg_dep_delay avg_arr_delay     n
##    <chr>  <dbl>         <dbl>         <dbl> <int>
##  1 EWR        1         14.9          12.8   9616
##  2 EWR        2         13.0           8.78  8575
##  3 EWR        3         18.1          10.6  10015
##  4 EWR        4         17.3          14.1  10231
##  5 EWR        5         15.2           5.38 10303
##  6 EWR        6         22.3          16.9   9736
##  7 EWR        7         21.9          15.5  10126
##  8 EWR        8         13.4           6.71 10144
##  9 EWR        9          7.14         -4.73  9362
## 10 EWR       10          8.64          2.60 10006
## # … with 26 more rows
…
{% highlight r %}
flights %>%
  group_by(origin, month) %>%
  summarize(avg_dep_delay = mean(dep_delay),
            avg_arr_delay = mean(arr_delay),
            n = n()) %>%
  ungroup()
{% endhighlight %}



{% highlight text %}
## # A tibble: 36 x 5
##    origin month avg_dep_delay avg_arr_delay     n
##    <chr>  <dbl>         <dbl>         <dbl> <int>
##  1 EWR        1         14.9          12.8   9616
##  2 EWR        2         13.0           8.78  8575
##  3 EWR        3         18.1          10.6  10015
##  4 EWR        4         17.3          14.1  10231
##  5 EWR        5         15.2           5.38 10303
##  6 EWR        6         22.3          16.9   9736
##  7 EWR        7         21.9          15.5  10126
##  8 EWR        8         13.4           6.71 10144
##  9 EWR        9          7.14         -4.73  9362
## 10 EWR       10          8.64          2.60 10006
## # … with 26 more rows
…
{% highlight r %}
flights %>%
  group_by(year, month, day) %>%
  filter(rank(desc(arr_delay)) <= 3) %>%
  select(year, month, day, arr_delay)
{% endhighlight %}



{% highlight text %}
## # A tibble: 1,085 x 4
## # Groups:   year, month, day [365]
##     year month   day arr_delay
##    <dbl> <dbl> <dbl>     <dbl>
##  1  2013     1     1       851
##  2  2013     1     1       338
##  3  2013     1     1       456
##  4  2013     1     2       323
##  5  2013     1     2       368
##  6  2013     1     2       359
##  7  2013     1     3       270
##  8  2013     1     3       257
##  9  2013     1     3       285
## 10  2013     1     4       162
## # … with 1,075 more rows
…
{% highlight r %}
flights %>%
  group_by(origin, dest) %>%
  summarize(dep_delay_total = sum(dep_delay)) %>%
  mutate(dep_delay_prop = dep_delay_total / sum(dep_delay_total) * 100) %>%
  arrange(desc(dep_delay_prop))
{% endhighlight %}



{% highlight text %}
## # A tibble: 223 x 4
## # Groups:   origin [3]
##    origin dest  dep_delay_total dep_delay_prop
##    <chr>  <chr>           <dbl>          <dbl>
##  1 LGA    ATL            114050          11.0 
##  2 LGA    ORD             90553           8.70
##  3 JFK    SFO             96032           7.32
##  4 JFK    LAX             94355           7.19
##  5 LGA    CLT             53226           5.12
##  6 JFK    BOS             66763           5.09
##  7 LGA    FLL             50516           4.86
##  8 EWR    ORD             84707           4.82
##  9 LGA    DEN             47741           4.59
## 10 LGA    MCO             46028           4.42
## # … with 213 more rows
…
