…
Let's actually apply this technique to the cars dataset. Here I have selected
a larger set of variables to work with:


{% highlight r %}
cars
{% endhighlight %}



{% highlight text %}
## # A tibble: 37 x 5
##    manufacturer class   engine_size  city highway
##    <chr>        <chr>         <dbl> <int>   <int>
##  1 audi         compact         2      20      28
##  2 audi         compact         3.1    17      25
##  3 chevrolet    suv             5.3    14      20
##  4 chevrolet    suv             5.7    11      15
##  5 audi         compact         3.1    18      27
##  6 chevrolet    suv             5.3    14      19
##  7 chevrolet    suv             5.3    11      14
##  8 chevrolet    suv             5.3    11      15
##  9 chevrolet    suv             5.3    14      20
## 10 audi         compact         1.8    21      29
## # … with 27 more rows
…
