…
Today, let's take a look at a different version of the same dataset from last class. Now
we have two continuous variables: the city fuel efficency and the highway fuel efficency.


{% highlight r %}
cars
{% endhighlight %}



{% highlight text %}
## # A tibble: 234 x 2
##     city highway
##    <int>   <int>
##  1    13      18
##  2    13      16
##  3    12      18
##  4    21      29
##  5    16      23
##  6    15      18
##  7    22      29
##  8    14      17
##  9    19      27
## 10    17      25
## # … with 224 more rows
…
As a totally different direction, let's return briefly to testing the means of a random
variable by groups. Take another look at a version of the cars dataset; now it includes
information about several different manufacturers:


{% highlight r %}
cars
{% endhighlight %}



{% highlight text %}
## # A tibble: 234 x 2
##     city manufacturer
##    <int> <chr>       
##  1    13 dodge       
##  2    13 ford        
##  3    12 land rover  
##  4    21 volkswagen  
##  5    16 dodge       
##  6    15 toyota      
##  7    22 volkswagen  
##  8    14 nissan      
##  9    19 nissan      
## 10    17 audi        
## # … with 224 more rows
…
